<?xml version="1.0" encoding="UTF-8" standalone="no"?>
<svg
   xmlns:dc="http://purl.org/dc/elements/1.1/"
   xmlns:cc="http://creativecommons.org/ns#"
   xmlns:rdf="http://www.w3.org/1999/02/22-rdf-syntax-ns#"
   xmlns:svg="http://www.w3.org/2000/svg"
   xmlns="http://www.w3.org/2000/svg"
   xmlns:sodipodi="http://sodipodi.sourceforge.net/DTD/sodipodi-0.dtd"
   xmlns:inkscape="http://www.inkscape.org/namespaces/inkscape"
   width="22"
   height="22"
   viewBox="0 0 22 22"
   version="1.1"
   id="svg12"
   sodipodi:docname="menu-pressed.svg"
   inkscape:version="0.92.2 2405546, 2018-03-11">
  <metadata
     id="metadata18">
    <rdf:RDF>
      <cc:Work
         rdf:about="">
        <dc:format>image/svg+xml</dc:format>
        <dc:type
           rdf:resource="http://purl.org/dc/dcmitype/StillImage" />
        <dc:title />
      </cc:Work>
    </rdf:RDF>
  </metadata>
  <defs
     id="defs16" />
  <sodipodi:namedview
     pagecolor="#ffffff"
     bordercolor="#666666"
     borderopacity="1"
     objecttolerance="10"
     gridtolerance="10"
     guidetolerance="10"
     inkscape:pageopacity="0"
     inkscape:pageshadow="2"
     inkscape:window-width="1920"
     inkscape:window-height="1026"
     id="namedview14"
     showgrid="false"
     inkscape:zoom="14.75"
     inkscape:cx="-5.7365438"
     inkscape:cy="9.1881014"
     inkscape:window-x="1440"
     inkscape:window-y="32"
     inkscape:window-maximized="1"
     inkscape:current-layer="svg12" />
  <rect
     width="22"
     height="22"
     id="rect2"
     x="0"
     y="0"
     style="fill:#1c202a;stroke-width:0.68736762;fill-opacity:1" />
  <rect
     width="22"
     height="2"
     id="rect4"
     x="0"
     y="0"
     style="fill:#4d9de0;fill-opacity:1;stroke-width:1.16778517" />
  <circle
     style="fill:#4d9de0;stroke-width:1.12804556;fill-opacity:1"
     id="circle8"
     r="2.2560911"
     cy="11.002119"
     cx="10.997882" />
  <g
     id="g834">
    <rect
       y="18"
       x="0"
       height="4"
       width="22"
       id="rect820"
       style="opacity:1;fill:#15171d;fill-opacity:1;stroke:none;stroke-width:1.9369545;stroke-linecap:round;stroke-linejoin:round;stroke-miterlimit:4;stroke-dasharray:none;stroke-opacity:1;paint-order:normal" />
    <rect
       y="20"
       x="0"
       height="2"
       width="22"
       id="rect823"
       style="opacity:1;fill:#1c202a;fill-opacity:1;stroke:none;stroke-width:2.45846462;stroke-linecap:round;stroke-linejoin:round;stroke-miterlimit:4;stroke-dasharray:none;stroke-opacity:1;paint-order:normal" />
  </g>
</svg>
