<?xml version="1.0" encoding="UTF-8" standalone="no"?>
<svg
   xmlns:dc="http://purl.org/dc/elements/1.1/"
   xmlns:cc="http://creativecommons.org/ns#"
   xmlns:rdf="http://www.w3.org/1999/02/22-rdf-syntax-ns#"
   xmlns:svg="http://www.w3.org/2000/svg"
   xmlns="http://www.w3.org/2000/svg"
   xmlns:sodipodi="http://sodipodi.sourceforge.net/DTD/sodipodi-0.dtd"
   xmlns:inkscape="http://www.inkscape.org/namespaces/inkscape"
   width="22"
   height="22"
   viewBox="0 0 22 22"
   version="1.1"
   id="svg12"
   sodipodi:docname="close-prelight.svg"
   inkscape:version="0.92.2 2405546, 2018-03-11">
  <metadata
     id="metadata18">
    <rdf:RDF>
      <cc:Work
         rdf:about="">
        <dc:format>image/svg+xml</dc:format>
        <dc:type
           rdf:resource="http://purl.org/dc/dcmitype/StillImage" />
        <dc:title />
      </cc:Work>
    </rdf:RDF>
  </metadata>
  <defs
     id="defs16" />
  <sodipodi:namedview
     pagecolor="#ffffff"
     bordercolor="#666666"
     borderopacity="1"
     objecttolerance="10"
     gridtolerance="10"
     guidetolerance="10"
     inkscape:pageopacity="0"
     inkscape:pageshadow="2"
     inkscape:window-width="1920"
     inkscape:window-height="1026"
     id="namedview14"
     showgrid="false"
     inkscape:zoom="22.627417"
     inkscape:cx="5.8870607"
     inkscape:cy="8.5199416"
     inkscape:window-x="1440"
     inkscape:window-y="32"
     inkscape:window-maximized="1"
     inkscape:current-layer="svg12" />
  <rect
     width="21.997353"
     height="21.997353"
     id="rect2"
     x="0"
     y="0.0026483089"
     style="fill:#1c202a;stroke-width:0.68741727;fill-opacity:1" />
  <rect
     width="21.997353"
     height="1.9881985"
     id="rect4"
     x="0"
     y="0.0026483089"
     style="fill:#4d9de0;fill-opacity:1;stroke-width:1.16906881" />
  <g
     id="g833"
     transform="matrix(0.74203108,0,0,0.74203108,3.0393897,2.6031327)"
     style="stroke-width:2.02147867;stroke-miterlimit:4;stroke-dasharray:none;stroke:#6992c5;stroke-opacity:1">
    <path
       inkscape:connector-curvature="0"
       id="path814"
       d="M 5.2786547,16.76554 16.177617,5.8665774"
       style="fill:none;stroke:#4d9de0;stroke-width:2.02147867;stroke-linecap:round;stroke-linejoin:round;stroke-miterlimit:4;stroke-dasharray:none;stroke-opacity:1" />
    <path
       inkscape:connector-curvature="0"
       id="path814-3"
       d="M 16.177617,16.76554 5.278655,5.8665774"
       style="fill:none;stroke:#4d9de0;stroke-width:2.02147867;stroke-linecap:round;stroke-linejoin:round;stroke-miterlimit:4;stroke-dasharray:none;stroke-opacity:1" />
  </g>
</svg>
