<?xml version="1.0" encoding="UTF-8" standalone="no"?>
<svg
   xmlns:dc="http://purl.org/dc/elements/1.1/"
   xmlns:cc="http://creativecommons.org/ns#"
   xmlns:rdf="http://www.w3.org/1999/02/22-rdf-syntax-ns#"
   xmlns:svg="http://www.w3.org/2000/svg"
   xmlns="http://www.w3.org/2000/svg"
   xmlns:sodipodi="http://sodipodi.sourceforge.net/DTD/sodipodi-0.dtd"
   xmlns:inkscape="http://www.inkscape.org/namespaces/inkscape"
   width="14"
   height="22"
   viewBox="0 0 14 22"
   version="1.1"
   id="svg6"
   sodipodi:docname="title_left.svg"
   inkscape:version="0.92.4 5da689c313, 2019-01-14">
  <metadata
     id="metadata12">
    <rdf:RDF>
      <cc:Work
         rdf:about="">
        <dc:format>image/svg+xml</dc:format>
        <dc:type
           rdf:resource="http://purl.org/dc/dcmitype/StillImage" />
        <dc:title />
      </cc:Work>
    </rdf:RDF>
  </metadata>
  <defs
     id="defs10" />
  <sodipodi:namedview
     pagecolor="#ffffff"
     bordercolor="#666666"
     borderopacity="1"
     objecttolerance="10"
     gridtolerance="10"
     guidetolerance="10"
     inkscape:pageopacity="0"
     inkscape:pageshadow="2"
     inkscape:window-width="1920"
     inkscape:window-height="1026"
     id="namedview8"
     showgrid="false"
     inkscape:zoom="22.627417"
     inkscape:cx="1.2971321"
     inkscape:cy="10.380219"
     inkscape:window-x="1440"
     inkscape:window-y="32"
     inkscape:window-maximized="1"
     inkscape:current-layer="svg6" />
  <rect
     style="fill:#15171d;fill-opacity:1;stroke-width:2.20119929"
     y="0"
     x="0"
     id="rect822"
     height="22"
     width="14" />
  <g
     id="g840">
    <path
       inkscape:connector-curvature="0"
       id="path1058-6"
       d="M 3.0095446,21.968329 8.9033926,-0.02784125 H 7.0754056 L 1.181565,21.968329 Z"
       style="fill:#1c202a;fill-opacity:1;stroke:none;stroke-width:0.99999994px;stroke-linecap:butt;stroke-linejoin:miter;stroke-opacity:1" />
    <path
       inkscape:connector-curvature="0"
       id="path1058"
       d="M 7.618577,21.965495 13.512425,-0.03067441 H 11.684438 L 5.790597,21.965495 Z"
       style="fill:#1c202a;fill-opacity:1;stroke:none;stroke-width:0.99999994px;stroke-linecap:butt;stroke-linejoin:miter;stroke-opacity:1" />
    <path
       inkscape:connector-curvature="0"
       id="path820"
       d="M 7,0 1.613889,22 H 0 V 0 Z"
       style="fill:#1c202a;fill-opacity:1;stroke:none;stroke-width:0.96262568px;stroke-linecap:butt;stroke-linejoin:miter;stroke-opacity:1" />
    <rect
       y="18"
       x="0"
       height="4"
       width="5"
       id="rect820"
       style="opacity:1;fill:#15171d;fill-opacity:1;stroke:none;stroke-width:1.01387703;stroke-linecap:round;stroke-linejoin:round;stroke-miterlimit:4;stroke-dasharray:none;stroke-opacity:1;paint-order:normal" />
    <rect
       y="20"
       x="0"
       height="2"
       width="7"
       id="rect823"
       style="opacity:1;fill:#1c202a;fill-opacity:1;stroke:none;stroke-width:1.39211655;stroke-linecap:round;stroke-linejoin:round;stroke-miterlimit:4;stroke-dasharray:none;stroke-opacity:1;paint-order:normal" />
  </g>
  <rect
     style="opacity:1;fill:#4d9de0;fill-opacity:1;stroke:none;stroke-width:4.39172554;stroke-linecap:round;stroke-linejoin:round;stroke-miterlimit:4;stroke-dasharray:none;stroke-opacity:0;paint-order:normal"
     id="rect814"
     width="14"
     height="2"
     x="0"
     y="0" />
</svg>
