<svg xmlns="http://www.w3.org/2000/svg" width="24" height="24" viewBox="0 0 24 24">
  <circle cx="12" cy="12" r="12" fill="#afc4dc" opacity="0.3"/>
  <circle cx="12" cy="12" r="4" fill="#afc4dc"/>
</svg>
