<svg xmlns="http://www.w3.org/2000/svg" width="32" height="32" viewBox="0 0 32 32">
  <rect width="32" height="32" fill="#12151a"/>
  <rect width="32" height="1" fill="#afc4dc" fill-opacity="0.1"/>
  <g fill="#afc4dc" opacity="0.7">
    <circle cx="16" cy="16" r="12" opacity="0"/>
    <path d="m12.4 11-1.41 1.41 3.59 3.59-3.59 3.59 1.41 1.41 3.59-3.59 3.59 3.59 1.41-1.41-3.59-3.59 3.59-3.59-1.41-1.41-3.59 3.59z"/>
  </g>
</svg>
