<?xml version="1.0" encoding="UTF-8" standalone="no"?>
<!-- Created with Inkscape (http://www.inkscape.org/) -->

<svg
   xmlns:dc="http://purl.org/dc/elements/1.1/"
   xmlns:cc="http://creativecommons.org/ns#"
   xmlns:rdf="http://www.w3.org/1999/02/22-rdf-syntax-ns#"
   xmlns:svg="http://www.w3.org/2000/svg"
   xmlns="http://www.w3.org/2000/svg"
   xmlns:xlink="http://www.w3.org/1999/xlink"
   xmlns:sodipodi="http://sodipodi.sourceforge.net/DTD/sodipodi-0.dtd"
   xmlns:inkscape="http://www.inkscape.org/namespaces/inkscape"
   width="119.46667"
   height="29.866667"
   id="svg4428"
   version="1.1"
   inkscape:version="0.92.2 2405546, 2018-03-11"
   sodipodi:docname="keepabove.svg">
  <defs
     id="defs4430">
    <linearGradient
       id="linearGradient3913">
      <stop
         style="stop-color:#ffffff;stop-opacity:1;"
         offset="0"
         id="stop3915" />
      <stop
         id="stop3921"
         offset="0.5"
         style="stop-color:#ffffff;stop-opacity:0.49803922;" />
      <stop
         style="stop-color:#ffffff;stop-opacity:0;"
         offset="1"
         id="stop3917" />
    </linearGradient>
    <linearGradient
       id="linearGradient3868">
      <stop
         style="stop-color:#5a5a5a;stop-opacity:1;"
         offset="0"
         id="stop3870" />
      <stop
         style="stop-color:#646464;stop-opacity:1;"
         offset="1"
         id="stop3872" />
    </linearGradient>
    <linearGradient
       id="linearGradient3813">
      <stop
         style="stop-color:#666666;stop-opacity:1;"
         offset="0"
         id="stop3815" />
      <stop
         style="stop-color:#636363;stop-opacity:1;"
         offset="1"
         id="stop3817" />
    </linearGradient>
    <linearGradient
       id="linearGradient3787">
      <stop
         style="stop-color:#e5e5df;stop-opacity:1;"
         offset="0"
         id="stop3789" />
      <stop
         style="stop-color:#dadad4;stop-opacity:1;"
         offset="1"
         id="stop3791" />
    </linearGradient>
    <linearGradient
       id="linearGradient3806-3-5-6">
      <stop
         style="stop-color:#303030;stop-opacity:1;"
         offset="0"
         id="stop3808-6-9-1" />
      <stop
         style="stop-color:#232323;stop-opacity:1;"
         offset="1"
         id="stop3810-4-6-3" />
    </linearGradient>
    <linearGradient
       inkscape:collect="always"
       xlink:href="#linearGradient3787"
       id="linearGradient3793"
       x1="40"
       y1="1044.3622"
       x2="40"
       y2="1032.3622"
       gradientUnits="userSpaceOnUse" />
    <linearGradient
       inkscape:collect="always"
       xlink:href="#linearGradient3787"
       id="linearGradient3828"
       gradientUnits="userSpaceOnUse"
       x1="40"
       y1="1044.3622"
       x2="40"
       y2="1032.3622"
       gradientTransform="matrix(1.1666666,0,0,1.0769231,-6.5,-80.335554)" />
    <linearGradient
       inkscape:collect="always"
       xlink:href="#linearGradient3787-8"
       id="linearGradient3835"
       gradientUnits="userSpaceOnUse"
       gradientTransform="matrix(1.1666666,0,0,1.0769231,-35.5,-1105.6978)"
       x1="40"
       y1="1044.3622"
       x2="40"
       y2="1032.3622" />
    <linearGradient
       inkscape:collect="always"
       xlink:href="#linearGradient3787-8"
       id="linearGradient3835-4"
       gradientUnits="userSpaceOnUse"
       gradientTransform="matrix(1.1666666,0,0,1.0769231,-35.5,-1105.6978)"
       x1="40"
       y1="1044.3622"
       x2="40"
       y2="1032.3622" />
    <linearGradient
       id="linearGradient3787-8">
      <stop
         style="stop-color:#f5f5ee;stop-opacity:1;"
         offset="0"
         id="stop3789-2" />
      <stop
         style="stop-color:#e6e6df;stop-opacity:1;"
         offset="1"
         id="stop3791-6" />
    </linearGradient>
    <linearGradient
       inkscape:collect="always"
       xlink:href="#linearGradient3787-8"
       id="linearGradient3835-3"
       gradientUnits="userSpaceOnUse"
       gradientTransform="matrix(1.1666666,0,0,1.0769231,-35.5,-1105.6978)"
       x1="40"
       y1="1044.3622"
       x2="40"
       y2="1032.3622" />
    <linearGradient
       id="linearGradient3787-7">
      <stop
         style="stop-color:#f5f5ee;stop-opacity:1;"
         offset="0"
         id="stop3789-3" />
      <stop
         style="stop-color:#e6e6e0;stop-opacity:1;"
         offset="1"
         id="stop3791-3" />
    </linearGradient>
    <linearGradient
       inkscape:collect="always"
       xlink:href="#linearGradient3787"
       id="linearGradient3807"
       x1="11"
       y1="15.75"
       x2="11"
       y2="8.25"
       gradientUnits="userSpaceOnUse" />
    <linearGradient
       inkscape:collect="always"
       xlink:href="#linearGradient3813"
       id="linearGradient3819"
       x1="29.5"
       y1="15.2"
       x2="29.5"
       y2="8.8000002"
       gradientUnits="userSpaceOnUse" />
    <linearGradient
       inkscape:collect="always"
       xlink:href="#linearGradient4231"
       id="linearGradient3807-1"
       x1="10"
       y1="7.0000038"
       x2="10"
       y2="15.888954"
       gradientUnits="userSpaceOnUse" />
    <linearGradient
       id="linearGradient4231">
      <stop
         id="stop4233"
         offset="0"
         style="stop-color:#e7e7e1;stop-opacity:1;" />
      <stop
         id="stop4239"
         offset="1"
         style="stop-color:#dadad3;stop-opacity:1;" />
    </linearGradient>
    <linearGradient
       inkscape:collect="always"
       xlink:href="#linearGradient4231-1"
       id="linearGradient3807-1-1"
       x1="10"
       y1="15.888976"
       x2="10"
       y2="7.0000262"
       gradientUnits="userSpaceOnUse" />
    <linearGradient
       id="linearGradient4231-1">
      <stop
         id="stop4233-6"
         offset="0"
         style="stop-color:#e5e5de;stop-opacity:1;" />
      <stop
         id="stop4239-7"
         offset="1"
         style="stop-color:#dadad3;stop-opacity:1;" />
    </linearGradient>
    <linearGradient
       id="linearGradient4363">
      <stop
         style="stop-color:#979791;stop-opacity:1;"
         offset="0"
         id="stop4365" />
      <stop
         style="stop-color:#dadad4;stop-opacity:0;"
         offset="1"
         id="stop4367" />
    </linearGradient>
    <linearGradient
       id="linearGradient4363-7">
      <stop
         style="stop-color:#f5f5ef;stop-opacity:1;"
         offset="0"
         id="stop4365-9" />
      <stop
         style="stop-color:#dadad4;stop-opacity:0;"
         offset="1"
         id="stop4367-8" />
    </linearGradient>
    <linearGradient
       inkscape:collect="always"
       xlink:href="#linearGradient4231-7"
       id="linearGradient4361"
       gradientUnits="userSpaceOnUse"
       gradientTransform="matrix(1.1875,0,0,1,-41.25,0)"
       x1="248.63158"
       y1="79"
       x2="248.63158"
       y2="58" />
    <linearGradient
       id="linearGradient4231-7">
      <stop
         id="stop4233-4"
         offset="0"
         style="stop-color:#e6e6df;stop-opacity:1;" />
      <stop
         id="stop4239-8"
         offset="1"
         style="stop-color:#d1d1ca;stop-opacity:1;" />
    </linearGradient>
    <linearGradient
       inkscape:collect="always"
       xlink:href="#linearGradient4231-7"
       id="linearGradient3127"
       gradientUnits="userSpaceOnUse"
       gradientTransform="matrix(1.1875,0,0,1,-262.25,-55.99998)"
       x1="248.63158"
       y1="79"
       x2="248.63158"
       y2="58" />
    <linearGradient
       inkscape:collect="always"
       xlink:href="#linearGradient4231-7"
       id="linearGradient3154"
       gradientUnits="userSpaceOnUse"
       gradientTransform="matrix(1.1875,0,0,1,-262.25,-55.99998)"
       x1="248.63158"
       y1="79"
       x2="248.63158"
       y2="58" />
    <linearGradient
       inkscape:collect="always"
       xlink:href="#linearGradient4231-7"
       id="linearGradient3159"
       gradientUnits="userSpaceOnUse"
       gradientTransform="matrix(1.1875,0,0,1,-249.25,-54.99998)"
       x1="248.63158"
       y1="79"
       x2="248.63158"
       y2="58" />
    <linearGradient
       inkscape:collect="always"
       xlink:href="#linearGradient4231-7-9"
       id="linearGradient3159-0"
       gradientUnits="userSpaceOnUse"
       gradientTransform="matrix(1.1875,0,0,1,-262.25,-55.99998)"
       x1="248.63158"
       y1="79"
       x2="248.63158"
       y2="58" />
    <linearGradient
       id="linearGradient4231-7-9">
      <stop
         id="stop4233-4-2"
         offset="0"
         style="stop-color:#e6e6df;stop-opacity:1;" />
      <stop
         id="stop4239-8-9"
         offset="1"
         style="stop-color:#d1d1ca;stop-opacity:1;" />
    </linearGradient>
    <linearGradient
       id="linearGradient4231-5">
      <stop
         id="stop4233-41"
         offset="0"
         style="stop-color:#e5e5de;stop-opacity:1;" />
      <stop
         id="stop4239-73"
         offset="1"
         style="stop-color:#dadad3;stop-opacity:1;" />
    </linearGradient>
    <linearGradient
       inkscape:collect="always"
       xlink:href="#linearGradient4231-7-7"
       id="linearGradient3159-1"
       gradientUnits="userSpaceOnUse"
       gradientTransform="matrix(1.1875,0,0,1,-262.25,-55.99998)"
       x1="248.63158"
       y1="79"
       x2="248.63158"
       y2="58" />
    <linearGradient
       id="linearGradient4231-7-7">
      <stop
         id="stop4233-4-7"
         offset="0"
         style="stop-color:#e6e6df;stop-opacity:1;" />
      <stop
         id="stop4239-8-2"
         offset="1"
         style="stop-color:#d1d1ca;stop-opacity:1;" />
    </linearGradient>
    <linearGradient
       inkscape:collect="always"
       xlink:href="#linearGradient4231-73"
       id="linearGradient3807-1-7"
       x1="10"
       y1="15.888976"
       x2="10"
       y2="7.0000262"
       gradientUnits="userSpaceOnUse" />
    <linearGradient
       id="linearGradient4231-73">
      <stop
         id="stop4233-1"
         offset="0"
         style="stop-color:#e5e5de;stop-opacity:1;" />
      <stop
         id="stop4239-85"
         offset="1"
         style="stop-color:#dadad3;stop-opacity:1;" />
    </linearGradient>
    <radialGradient
       inkscape:collect="always"
       xlink:href="#linearGradient4363-7"
       id="radialGradient5329"
       cx="-14.843177"
       cy="1034.9207"
       fx="-14.843177"
       fy="1034.9207"
       r="8.0063524"
       gradientTransform="matrix(1,0,0,0.49292897,0.12127985,524.5964)"
       gradientUnits="userSpaceOnUse" />
    <filter
       inkscape:collect="always"
       id="filter5355"
       x="-0.18225814"
       width="1.3645163"
       y="-0.37276217"
       height="1.7455244">
      <feGaussianBlur
         inkscape:collect="always"
         stdDeviation="1.2065266"
         id="feGaussianBlur5357" />
    </filter>
  </defs>
  <sodipodi:namedview
     id="base"
     pagecolor="#eff0f1"
     bordercolor="#666666"
     borderopacity="1.0"
     inkscape:pageopacity="1"
     inkscape:pageshadow="2"
     inkscape:zoom="8"
     inkscape:cx="56.266254"
     inkscape:cy="25.347072"
     inkscape:document-units="px"
     inkscape:current-layer="layer3"
     showgrid="false"
     inkscape:snap-bbox="true"
     inkscape:window-width="1860"
     inkscape:window-height="1020"
     inkscape:window-x="1492"
     inkscape:window-y="22"
     inkscape:window-maximized="0"
     showborder="false"
     inkscape:showpageshadow="false"
     showguides="false"
     inkscape:guide-bbox="true">
    <inkscape:grid
       type="xygrid"
       id="grid4436"
       empspacing="5"
       visible="true"
       enabled="true"
       snapvisiblegridlinesonly="true"
       originx="0"
       originy="0"
       spacingx="1.0666667"
       spacingy="1.0666667" />
    <sodipodi:guide
       position="12.925781,24.972656"
       orientation="0,1"
       id="guide8236"
       inkscape:locked="false" />
    <sodipodi:guide
       position="2.875,14.832031"
       orientation="1,0"
       id="guide8238"
       inkscape:locked="false" />
  </sodipodi:namedview>
  <metadata
     id="metadata4433">
    <rdf:RDF>
      <cc:Work
         rdf:about="">
        <dc:format>image/svg+xml</dc:format>
        <dc:type
           rdf:resource="http://purl.org/dc/dcmitype/StillImage" />
        <dc:title />
      </cc:Work>
    </rdf:RDF>
  </metadata>
  <g
     inkscape:label="Layer 1"
     inkscape:groupmode="layer"
     id="layer1"
     transform="translate(0,-1092.653)"
     style="display:none">
    <g
       id="4"
       inkscape:label="#g3842"
       transform="translate(86.4,-3.2)" />
    <path
       style="opacity:0;fill:url(#radialGradient5329);fill-opacity:1;stroke:#000000;stroke-width:0.1;stroke-linecap:butt;stroke-linejoin:miter;stroke-miterlimit:4;stroke-dasharray:none;stroke-opacity:1;filter:url(#filter5355)"
       d="m -22.665748,1038.6229 h 15.8877044 c -0.3742772,-10.7481 -15.8936154,-9.9594 -15.8877044,0 z"
       id="path3863"
       inkscape:connector-curvature="0"
       sodipodi:nodetypes="ccc"
       transform="matrix(0.99862602,0,0,0.91748438,122.43674,158.27533)" />
    <g
       id="active-center-1"
       transform="matrix(0.02211836,0,0,-0.02211825,2.8148384,1117.8901)">
      <path
         inkscape:connector-curvature="0"
         d="m 458.87896,7.858312 c 251.8005,0 455.9211,204.124598 455.9211,455.929418 0,251.79519 -204.1206,455.92109 -455.9211,455.92109 C 207.07951,919.70882 2.9541065,715.58292 2.9541065,463.78773 2.9541065,211.98291 207.07951,7.858312 458.87896,7.858312"
         style="fill:#c5a8ce;fill-opacity:1;fill-rule:evenodd;stroke:none;stroke-width:1.06666672;enable-background:new"
         id="path14" />
      <path
         inkscape:connector-curvature="0"
         d="m 458.87706,46.637782 c 230.384,0 417.1499,186.762968 417.1499,417.150178 0,230.37869 -186.7659,417.14139 -417.1499,417.14139 -230.38292,0 -417.149854,-186.7627 -417.149854,-417.14139 0,-230.38721 186.766934,-417.150178 417.149854,-417.150178"
         style="fill:#ccb0d5;fill-opacity:1;fill-rule:evenodd;stroke:none;stroke-width:1.06666672;enable-background:new"
         id="path16" />
    </g>
    <path
       id="path14-3"
       style="fill:#d1b6da;fill-opacity:1;fill-rule:evenodd;stroke:none;stroke-width:0.02359286;enable-background:new"
       d="m 37.945723,1097.9852 c -5.569414,0 -10.084226,4.5149 -10.084226,10.0843 0,5.5693 4.514812,10.0842 10.084226,10.0842 5.56939,0 10.084311,-4.5149 10.084311,-10.0842 0,-5.5694 -4.514921,-10.0843 -10.084311,-10.0843"
       inkscape:connector-curvature="0" />
    <path
       id="path16-5"
       style="fill:#d1b6da;fill-opacity:1;fill-rule:evenodd;stroke:none;stroke-width:0.02359286;enable-background:new"
       d="m 37.945765,1098.8429 c -5.095716,0 -9.22667,4.1309 -9.22667,9.2267 0,5.0955 4.130954,9.2264 9.22667,9.2264 5.095693,0 9.226672,-4.1309 9.226672,-9.2264 0,-5.0958 -4.130979,-9.2267 -9.226672,-9.2267"
       inkscape:connector-curvature="0" />
    <path
       sodipodi:nodetypes="csscc"
       id="path18-6"
       style="fill:#ab90b4;fill-opacity:1;fill-rule:evenodd;stroke:none;stroke-width:0.02359286;enable-background:new"
       d="m 32.391311,1109.7969 4.475165,-4.4752 c 0.593618,-0.5936 1.564851,-0.5936 2.158455,0 l 4.475204,4.4752 H 32.391311"
       inkscape:connector-curvature="0" />
    <image
       width="36.354378"
       height="30.681839"
       preserveAspectRatio="none"
       xlink:href="data:image/png;base64,iVBORw0KGgoAAAANSUhEUgAAACgAAAAhCAIAAAAkk37yAAAACXBIWXMAAA2wAAANYQHlRq2kAAAD UUlEQVRIie2XW0zTUBjHT1vWQRmdZJ2geOGWmKHQAcKM0YeRjKnBwIOA8YEE4zMhvBjFBDIQ1MRL fPYWH0QEwkUJvigQwSeh6xIXQQYRo2BWglTMljWlPpTMsdKzYSa++H86bb+e3/mf7zv5WiRtbxb4 F4pDEOQ/eHvAYCtgHMfz6Pw8mjYYjXpSv8KvLHm9LpZ1sUwgENgSGNmXcSCauESdrrKquqy8IiE+ QfnU5/e96O/retb5c3U1lmBzfuHFy40kScLDeJ6/3nbVyUxEA8b0yRQ8wlZqv9R4JT5hE6Nh0mq1 VmsJ5/XOejwRg1H4Y3N+YV19A4phYfcFQejq7BAEIXw6DKurb6DNBRHBMMeJOt2Nm7eVXgVBaG91 DD4fmJudPXrsOLZxWQiKFlksL4cGBWi5wRxXVlUr8ypTGWay+uw5hplsb3UofZMkeaaqGjIzDIzj eFl5hRq12dFSU3u+2dGixj5dXqHRaCBg1a3OLzhsK7WrUeUspqbuMplMTzuezHycDttzTZzG7XYv fP2iBlZ1nEfTEGqwuGhzgZpvmjZDHKuCDUYjhNre6nj04L4MU2NTFOygqoL1pD44Hh0ZDqOGFVeQ PToyHHwrKWQGpVRzXFhcnJ6eIY/3p6eX2k9kZGaFWrefPBWa4N1pe2w2uyknB0XXzUxPfRgfe7Nl x0te7+/VYZiBopTFFbbJBooKrS+O4yCOVcEulg29VFJlQYqLZZ1/BmZ8fh+cCmH7/D6Xk4GAVXMs iiJBEAcP5QIAhl+/Gujv25QqK3igd6akZGZlAQB6e7onJ95BwLC2mKjT3Xv4mCRJURS/Ly8boMcD ALDEcTuSkzEM43n+Qm0NvDfDmoQQCHhmZqzWEgzDCIKAUwEABEGgKLomio7mps/zn+DBEfrx4uIC 5/UWW44gaIQGKmtNFO/eufV2fCxiZOQPgVmPx/3eXWSxaLVaeCTP847mpmioUYEBAN8WF14ODUpA yszO1sRt0nN8fl9vT/e1ttaIOxxUtB97snAcz6XNNG2mKCqJ1P/gVziOY1mny8koOyMAAEhSbMBb kiRJEHDcX2RKAIBtBMsm161Kqn8LsQcjCAAAifhnFNXpjFLqCVVGSrEEQzK6kbo2Pzf1C4hmywlh rbKbAAAAAElFTkSuQmCC "
       id="image912"
       x="-47.053661"
       y="1093.1619" />
    <g
       id="pressed-center-1"
       transform="matrix(0.02211825,0,0,-0.02211836,47.96021,1117.9438)">
      <path
         id="path14-2"
         style="fill:#58b4aa;fill-opacity:1;fill-rule:evenodd;stroke:none;stroke-width:1.06666672"
         d="m 461.86449,10.287447 c 251.80179,0 455.92339,204.123583 455.92339,455.927123 0,251.79395 -204.1216,455.91881 -455.92339,455.91881 -251.80072,0 -455.927139,-204.12486 -455.927139,-455.91881 0,-251.80354 204.126419,-455.927123 455.927139,-455.927123"
         inkscape:connector-curvature="0" />
      <path
         inkscape:connector-curvature="0"
         d="m 461.86074,922.13339 c -251.8018,0 -455.9233,-204.1236 -455.9233,-455.9271 0,-251.79399 204.1215,-455.91885 455.9233,-455.91885 251.80066,0 455.92706,204.12486 455.92706,455.91885 0,251.8035 -204.1264,455.9271 -455.92706,455.9271"
         style="fill:#bfa2c8;fill-opacity:1;fill-rule:evenodd;stroke:none;stroke-width:1.06666672;enable-background:new"
         id="path14-2-3" />
      <path
         inkscape:connector-curvature="0"
         d="m 461.86074,883.35429 c -230.3852,0 -417.1519,-186.762 -417.1519,-417.148 0,-230.37753 186.7667,-417.1393 417.1519,-417.1393 230.38406,0 417.15186,186.76177 417.15186,417.1393 0,230.386 -186.7678,417.148 -417.15186,417.148"
         style="fill:#bfa2c8;fill-opacity:1;fill-rule:evenodd;stroke:none;stroke-width:1.06666672;enable-background:new"
         id="path16-9-6" />
      <path
         inkscape:connector-curvature="0"
         d="m 210.73724,387.97912 202.3291,202.32797 c 26.8383,26.8383 70.7492,26.8382 97.58706,6e-4 l 202.3308,-202.32987 -502.24696,10e-4"
         style="fill:#9e83a7;fill-opacity:1;fill-rule:evenodd;stroke:none;stroke-width:1.06666672;enable-background:new"
         id="path18-6-3"
         sodipodi:nodetypes="csscc" />
    </g>
    <g
       id="inactive-center-1"
       transform="matrix(0.02211826,0,0,-0.02211835,73.959447,1117.8241)">
      <path
         inkscape:connector-curvature="0"
         d="m 458.87893,4.8749973 c 251.80054,0 455.92534,204.1212727 455.92534,455.9250027 0,251.79627 -204.1248,455.92107 -455.92534,455.92107 C 207.07947,916.72107 2.9541653,712.59627 2.9541653,460.8 2.9541653,208.99627 207.07947,4.8749973 458.87893,4.8749973"
         style="fill:#b4b4b4;fill-opacity:1;fill-rule:evenodd;stroke:none;stroke-width:1.06666672"
         id="path14-0" />
      <path
         inkscape:connector-curvature="0"
         d="m 458.87893,43.650027 c 230.384,0 417.14987,186.762773 417.14987,417.149973 0,230.37867 -186.76587,417.1456 -417.14987,417.1456 C 228.496,877.9456 41.729173,691.17867 41.729173,460.8 41.729173,230.4128 228.496,43.650027 458.87893,43.650027"
         style="fill:#c7c7c7;fill-opacity:1;fill-rule:evenodd;stroke:none;stroke-width:1.06666672"
         id="path16-8" />
    </g>
    <g
       id="deactivated-center-1"
       transform="matrix(0.02211826,0,0,-0.02211835,96.716341,1117.8241)">
      <path
         inkscape:connector-curvature="0"
         d="m 458.87893,4.8749973 c 251.80054,0 455.92534,204.1212727 455.92534,455.9250027 0,251.79627 -204.1248,455.92107 -455.92534,455.92107 C 207.07947,916.72107 2.9541653,712.59627 2.9541653,460.8 2.9541653,208.99627 207.07947,4.8749973 458.87893,4.8749973"
         style="fill:#b4b4b4;fill-opacity:1;fill-rule:evenodd;stroke:none;stroke-width:1.06666672"
         id="path14-0-0" />
      <path
         inkscape:connector-curvature="0"
         d="m 458.87893,43.650027 c 230.384,0 417.14987,186.762773 417.14987,417.149973 0,230.37867 -186.76587,417.1456 -417.14987,417.1456 C 228.496,877.9456 41.729173,691.17867 41.729173,460.8 41.729173,230.4128 228.496,43.650027 458.87893,43.650027"
         style="fill:#c7c7c7;fill-opacity:1;fill-rule:evenodd;stroke:none;stroke-width:1.06666672"
         id="path16-8-4" />
    </g>
  </g>
  <g
     inkscape:groupmode="layer"
     id="layer3"
     inkscape:label="Layer 2"
     style="display:inline">
    <g
       id="active-center">
      <circle
         r="10.097179"
         cy="1107.6442"
         cx="12.972179"
         id="path8242"
         style="opacity:1;fill:#ffffff;fill-opacity:0.00392157;fill-rule:evenodd;stroke:none;stroke-width:1.25;stroke-linecap:round;stroke-linejoin:round;stroke-miterlimit:4;stroke-dasharray:none;stroke-dashoffset:0;stroke-opacity:1"
         transform="translate(0,-1092.653)" />
      <g
         transform="matrix(0.02211825,0,0,-0.02211826,70.075881,25.210569)"
         id="g8216">
        <path
           inkscape:connector-curvature="0"
           id="path915"
           d="m -2871.0006,472.87427 294.7254,285.12955 263.1965,-278.27548"
           style="fill:none;stroke:#ffffff;stroke-width:56.5144043;stroke-linecap:round;stroke-linejoin:round;stroke-miterlimit:4;stroke-dasharray:none;stroke-opacity:1" />
        <path
           inkscape:connector-curvature="0"
           id="path915-3"
           d="m -2869.3853,247.72095 294.7254,285.12956 263.1965,-278.27549"
           style="fill:none;stroke:#ffffff;stroke-width:56.5144043;stroke-linecap:round;stroke-linejoin:round;stroke-miterlimit:4;stroke-dasharray:none;stroke-opacity:1" />
      </g>
    </g>
    <g
       transform="translate(23.477695,5.017899e-4)"
       style="display:inline"
       id="hover-center">
      <circle
         r="10.097179"
         cy="1107.6442"
         cx="12.972179"
         id="path8242-9"
         style="opacity:1;fill:#ffffff;fill-opacity:1;fill-rule:evenodd;stroke:none;stroke-width:1.25;stroke-linecap:round;stroke-linejoin:round;stroke-miterlimit:4;stroke-dasharray:none;stroke-dashoffset:0;stroke-opacity:1"
         transform="translate(0,-1092.653)" />
      <g
         transform="matrix(0.02211825,0,0,-0.02211826,70.075881,25.210569)"
         id="g8216-1">
        <path
           inkscape:connector-curvature="0"
           id="path915-2"
           d="m -2871.0006,472.87427 294.7254,285.12955 263.1965,-278.27548"
           style="fill:none;stroke:#1e2127;stroke-width:56.5144043;stroke-linecap:round;stroke-linejoin:round;stroke-miterlimit:4;stroke-dasharray:none;stroke-opacity:1" />
        <path
           inkscape:connector-curvature="0"
           id="path915-3-7"
           d="m -2869.3853,247.72095 294.7254,285.12956 263.1965,-278.27549"
           style="fill:none;stroke:#1e2127;stroke-width:56.5144043;stroke-linecap:round;stroke-linejoin:round;stroke-miterlimit:4;stroke-dasharray:none;stroke-opacity:1" />
      </g>
    </g>
    <g
       transform="translate(46.955391,-0.04918475)"
       style="display:inline"
       id="pressed-center">
      <circle
         r="10.097179"
         cy="1107.6442"
         cx="12.972179"
         id="path8242-9-9"
         style="opacity:1;fill:#fdfefe;fill-opacity:1;fill-rule:evenodd;stroke:none;stroke-width:1.25;stroke-linecap:round;stroke-linejoin:round;stroke-miterlimit:4;stroke-dasharray:none;stroke-dashoffset:0;stroke-opacity:1"
         transform="translate(0,-1092.653)" />
      <g
         transform="matrix(0.02211825,0,0,-0.02211826,70.075881,25.210569)"
         id="g8216-1-3">
        <path
           inkscape:connector-curvature="0"
           id="path915-2-6"
           d="m -2871.0006,472.87427 294.7254,285.12955 263.1965,-278.27548"
           style="fill:none;stroke:#1e2127;stroke-width:56.5144043;stroke-linecap:round;stroke-linejoin:round;stroke-miterlimit:4;stroke-dasharray:none;stroke-opacity:1" />
        <path
           inkscape:connector-curvature="0"
           id="path915-3-7-0"
           d="m -2869.3853,247.72095 294.7254,285.12956 263.1965,-278.27549"
           style="fill:none;stroke:#1e2127;stroke-width:56.5144043;stroke-linecap:round;stroke-linejoin:round;stroke-miterlimit:4;stroke-dasharray:none;stroke-opacity:1" />
      </g>
    </g>
    <g
       transform="translate(70.43309,0.02625938)"
       style="display:inline"
       id="inactive-center">
      <circle
         r="10.097179"
         cy="1107.6442"
         cx="12.972179"
         id="path8242-2"
         style="opacity:1;fill:#ffffff;fill-opacity:0.00392157;fill-rule:evenodd;stroke:none;stroke-width:1.25;stroke-linecap:round;stroke-linejoin:round;stroke-miterlimit:4;stroke-dasharray:none;stroke-dashoffset:0;stroke-opacity:1"
         transform="translate(0,-1092.653)" />
      <g
         transform="matrix(0.02211825,0,0,-0.02211826,70.075881,25.210569)"
         id="g8216-6">
        <path
           inkscape:connector-curvature="0"
           id="path915-1"
           d="m -2871.0006,472.87427 294.7254,285.12955 263.1965,-278.27548"
           style="fill:none;stroke:#969696;stroke-width:56.5144043;stroke-linecap:round;stroke-linejoin:round;stroke-miterlimit:4;stroke-dasharray:none;stroke-opacity:1" />
        <path
           inkscape:connector-curvature="0"
           id="path915-3-8"
           d="m -2869.3853,247.72095 294.7254,285.12956 263.1965,-278.27549"
           style="fill:none;stroke:#969696;stroke-width:56.5144043;stroke-linecap:round;stroke-linejoin:round;stroke-miterlimit:4;stroke-dasharray:none;stroke-opacity:1" />
      </g>
    </g>
    <g
       transform="translate(93.910782,-0.0325452)"
       style="display:inline"
       id="deactivated-center">
      <circle
         r="10.097179"
         cy="1107.6442"
         cx="12.972179"
         id="path8242-2-9"
         style="opacity:1;fill:#ffffff;fill-opacity:0.00392157;fill-rule:evenodd;stroke:none;stroke-width:1.25;stroke-linecap:round;stroke-linejoin:round;stroke-miterlimit:4;stroke-dasharray:none;stroke-dashoffset:0;stroke-opacity:1"
         transform="translate(0,-1092.653)" />
      <g
         transform="matrix(0.02211825,0,0,-0.02211826,70.075881,25.210569)"
         id="g8216-6-2">
        <path
           inkscape:connector-curvature="0"
           id="path915-1-0"
           d="m -2871.0006,472.87427 294.7254,285.12955 263.1965,-278.27548"
           style="fill:none;stroke:#969696;stroke-width:56.5144043;stroke-linecap:round;stroke-linejoin:round;stroke-miterlimit:4;stroke-dasharray:none;stroke-opacity:1" />
        <path
           inkscape:connector-curvature="0"
           id="path915-3-8-2"
           d="m -2869.3853,247.72095 294.7254,285.12956 263.1965,-278.27549"
           style="fill:none;stroke:#969696;stroke-width:56.5144043;stroke-linecap:round;stroke-linejoin:round;stroke-miterlimit:4;stroke-dasharray:none;stroke-opacity:1" />
      </g>
    </g>
  </g>
</svg>
